{
 "custom_fields": [
  {
   "_assign": null,
   "_comments": null,
   "_liked_by": null,
   "_user_tags": null,
   "allow_in_quick_entry": 0,
   "allow_on_submit": 0,
   "app_name": "dsr",
   "bold": 0,
   "collapsible": 0,
   "collapsible_depends_on": null,
   "columns": 0,
   "creation": "2021-08-12 12:29:51.754600",
   "default": null,
   "depends_on": null,
   "description": null,
   "docstatus": 0,
   "dt": "Item Default",
   "fetch_from": null,
   "fetch_if_empty": 0,
   "fieldname": "default_zone_location",
   "fieldtype": "Link",
   "hidden": 0,
   "idx": 2,
   "ignore_user_permissions": 0,
   "ignore_xss_filter": 0,
   "in_global_search": 0,
   "in_list_view": 1,
   "in_standard_filter": 0,
   "insert_after": "default_warehouse",
   "label": "Zone Location",
   "length": 0,
   "modified": "2021-08-08 23:57:16.887728",
   "modified_by": "Administrator",
   "name": "Item Default-default_zone_location",
   "no_copy": 0,
   "options": "Zone Location",
   "owner": "Administrator",
   "parent": null,
   "parentfield": null,
   "parenttype": null,
   "permlevel": 0,
   "precision": "",
   "print_hide": 0,
   "print_hide_if_no_value": 0,
   "print_width": null,
   "read_only": 0,
   "report_hide": 0,
   "reqd": 0,
   "search_index": 0,
   "translatable": 0,
   "unique": 0,
   "width": null
  },
  {
   "_assign": null,
   "_comments": null,
   "_liked_by": null,
   "_user_tags": null,
   "allow_in_quick_entry": 0,
   "allow_on_submit": 0,
   "app_name": "dsr",
   "bold": 0,
   "collapsible": 0,
   "collapsible_depends_on": null,
   "columns": 0,
   "creation": "2021-08-12 12:29:52.092932",
   "default": null,
   "depends_on": null,
   "description": null,
   "docstatus": 0,
   "dt": "Item Default",
   "fetch_from": null,
   "fetch_if_empty": 0,
   "fieldname": "default_bin_location",
   "fieldtype": "Link",
   "hidden": 0,
   "idx": 3,
   "ignore_user_permissions": 0,
   "ignore_xss_filter": 0,
   "in_global_search": 0,
   "in_list_view": 1,
   "in_standard_filter": 0,
   "insert_after": "default_zone_location",
   "label": "Bin Location",
   "length": 0,
   "modified": "2021-08-08 23:57:25.543497",
   "modified_by": "Administrator",
   "name": "Item Default-default_bin_location",
   "no_copy": 0,
   "options": "Bin Location",
   "owner": "Administrator",
   "parent": null,
   "parentfield": null,
   "parenttype": null,
   "permlevel": 0,
   "precision": "",
   "print_hide": 0,
   "print_hide_if_no_value": 0,
   "print_width": null,
   "read_only": 0,
   "report_hide": 0,
   "reqd": 0,
   "search_index": 0,
   "translatable": 0,
   "unique": 0,
   "width": null
  }
 ],
 "custom_perms": [],
 "doctype": "Item Default",
 "property_setters": [],
 "sync_on_migrate": 1
}