{
 "absolute_value": 0,
 "align_labels_right": 0,
 "creation": "2021-08-09 23:06:14.149648",
 "css": "\r\n\r\n        table, th, td {\r\n            border-collapse: collapse;\r\n            padding-top: 5px;\r\n            padding-bottom: 5px;\r\n            padding-left: 7px;\r\n            padding-right: 7px;\r\n        }\r\n\r\n        th {\r\n            font-size: 10px;\r\n            border: 1px solid black;\r\n        }\r\n\r\n        td {\r\n            font-size: 10px;\r\n        }\r\n\r\n \r\n        \r\n.print-format-gutter {\r\n\tdisplay:flex !important;\r\n\tflex-direction:column;\r\n}\r\n.pdf-variables,\r\n.pdf-variable,\r\n.visible-pdf {\r\n\tdisplay: block !important;\r\n}\r\n#footer-html {\r\n    order: 1;\r\n}\r\n.print-format th {\r\n    background-color: unset !important;\r\n    text-align: center;\r\n    border-bottom: 1px solid black !important;\r\n}\r\n\r\nthead { display: table-header-group }\r\ntfoot { display: table-row-group }\r\ntr { page-break-inside: avoid }",
 "custom_format": 1,
 "disabled": 0,
 "doc_type": "Material Request",
 "docstatus": 0,
 "doctype": "Print Format",
 "font": "Default",
 "html": "{% for page in layout %}\n\n<div class=\"page-break\">\n    <div {% if print_settings.repeat_header_footer %} id=\"header-html\" class=\"hidden-pdf\" {% endif %}>\n        <center>\n            <table width=\"650\" height=\"70\" cellpadding=\"0\" cellspacing=\"0\">\n                <tbody>\n                    <tr>\n                        <td align=\"left\" width=\"55%\" colspan=\"2\">\n                            <b>{{ doc.company }}</b><br>\n                            {{ get_company_address(doc.company).company_address_display or \"\" }}\n                            {{ _(\"Tel\") }}.: {{ frappe.db.get_value(\"Company\", doc.company, \"phone_no\") or \"\" }}, {{ _(\"Fax\") }}: {{ frappe.db.get_value(\"Company\", doc.company, \"fax\") or \"\" }}\n                        </td>\n                        <td  colspan=\"2\" align=\"left\" style=\"font-size: 25px ;\"><b>{{ _(\"Pick List\") }}</b></td>\n                    </tr>\n                    \n                    <tr>\n                        <td width=\"7%\">{{ _(\"Deliver to\") }}</td>\n                        <td>: <span style=\"font-weight:bold; font-size:12px;\"> {{ doc.deliver_to or \"\" }}</span></td>\n                        <td>M.R. No.</td>\n                        <td width=\"30%\">:<span style=\"font-size: 20px; color: firebrick;\">  {{ doc.name }} </span></td>\n                    </tr>\n                    <tr>\n                        <td>Representative</td>\n                        <td>: <span style=\"font-weight:bold; font-size:10px;\">{{ frappe.db.get_value(\"User\", doc.owner, \"full_name\") or \"\" }}</span></td>\n                        <td>Date Order</td>\n                        <td>: <span style=\"font-weight:bold; font-size:10px;\">{{ doc.posting_date|global_date_format(format='medium') }}</span></td>\n                    </tr>\n                    <tr><td colspan=\"4\" ><hr></td></tr>\n                </tbody>\n            </table>\n        </center>\n    </div>\n    <!-- Start Content -->\n        <!-- Items -->\n    \n    <div id=\"myDiv\" class=\"animate-bottom\">\n        <table id=\"tab\" width=\"650\">\n            <thead>\n                <tr>\n                    <th width=\"20\">{{ _(\"Released\") }}</th>\n                    <th width=\"25\">{{ _(\"Qty\") }}</th>\n                    <th width=\"20\">{{ _(\"UoM\") }}</th>\n                    <th width=\"300\">{{ _(\"Product Name\") }}</th>\n                    <th width=\"100\">{{ _(\"Warehouse\") }}</th>\n                </tr>\n            </thead>\n            <tbody>\n                {% set total_item_in_page = [0] %}\n                {% for row in doc.items %}\n                {% if not doc.zone_location or row.zone_location==doc.zone_location %}\n                <tr>\n                    <td style=\"text-align: center; padding: 5px !important;\">_____</td>\n                    <td style=\"padding: 5px; !important;\">{{ row.qty }}</td>\n                    <td style=\"padding: 5px; !important;\">{{ row.uom }}</td>\n                    <td style=\"text-align: left; padding: 5px; !important;\">{{ row.item_name }}</td>\n                    <td style=\"padding: 5px; !important;\">{{ row.bin_location or \"\" }}</td>\n                </tr>\n                    {% if total_item_in_page.append(total_item_in_page.pop() + 1) %} {% endif %}\n                {% endif %}\n                {% endfor %}\n            </tbody>\n        </table>\n    </div>\n    <!-- End Content -->\n    <!--Footer-->\n    <div id=\"footer-html\" class=\"visible-pdf\">\n        <div class=\"letter-head-footer\">\n            <table width=\"100%\">\n                <tbody>\n                    <tr>\n                        <td colspan=\"5\"><hr></td>\n                    </tr>\n                    <tr>\n                        <td width=\"70%\" colspan=\"2\">No of Item to Prepare: <b>{{ total_item_in_page[0]  }} {% set total_item_in_page = [0] %}</b></td>\n                        <td style=\"text-align:center;\">Date of Print: <b>{{ frappe.utils.today()|global_date_format(format='medium') }}</b></td>\n                    </tr>\n                    <tr>\n                        <td style=\"text-align:center; \">Prepared by: </td>\n                        <td style=\"text-align:center; \">Checked by: </td>\n                        <td style=\"text-align:center; \">Approved/Noted by: </td>\n                    </tr>\n                    <tr>\n                        <td style=\"text-align:center; \"><u> {{ frappe.db.get_value(\"User\", frappe.user, \"full_name\") or \"\" }}   </u></td>\n                        <td style=\"text-align:center;\">________________________</td>\n                        <td style=\"text-align:center;\">________________________</td>\n                    </tr>\n                    <tr>\n                        <td style=\"text-align:center; font-size: 10px;\">Signature Over Printed Name</td>\n                        <td style=\"text-align:center; font-size: 10px; padding-top: 0;\">Signature Over Printed Name</td>\n                        <td style=\"text-align:center; font-size: 10px; padding-top: 0;\">Signature Over Printed Name</td>\n                    </tr>\n                </tbody>\n            </table>\n        </div>\n        {% if layout|length > 1 %}\n        <p class=\"text-center small page-number visible-pdf\">\n            {{ _(\"Page no. {0}/{1}\").format('<span class=\"page\"></span>', '<span class=\"topage\"></span>') }}\n        </p>\n        {% endif %}\n    </div>\n    <!--EndFooter-->\n</div>\n{% endfor %}",
 "idx": 0,
 "line_breaks": 0,
 "modified": "2021-08-12 03:10:13.533525",
 "modified_by": "Administrator",
 "module": "DSR",
 "name": "Picklist",
 "owner": "Administrator",
 "print_format_builder": 1,
 "print_format_type": "Jinja",
 "raw_printing": 0,
 "show_section_headings": 0,
 "standard": "Yes"
}